{{-3,5,-16,6,17,-5,13,-19,-1,14}|{12,9,3,-16,-19,-20,10,16,-3,-5}|{0,16,-17,-17,15,5,-13,-6,-13,-9}|{9,-9,10,-4,9,6,18,-18,-11,3}|{1,4,-13,-17,8,-15,-17,-1,-10,-2}|{8,-13,5,7,3,1,2,-20,11,-8}|{-13,-2,15,-12,-15,0,19,-13,-4,-4}|{-18,7,6,15,15,16,9,20,-4,10}|{2,9,-17,9,3,1,7,-18,13,-12}|{-17,17,-9,18,-5,-18,10,19,19,-13}}
{{5,-16,19,1,19,2,10,1,6,-11}|{14,-18,-13,-4,-11,-19,-15,3,-3,-6}|{-6,19,-5,8,15,11,17,-20,16,0}|{-4,-14,-4,4,-7,10,6,19,-12,-16}|{-3,-15,7,-6,5,-4,-17,19,-18,-15}|{-11,-19,3,8,-20,7,10,-10,7,-12}|{6,10,6,-15,13,7,6,4,-17,0}|{-4,-13,-5,-7,18,-12,-9,-20,-17,-1}|{8,18,18,10,-9,-5,4,8,3,7}|{20,-5,-9,20,-2,7,0,1,2,18}}
{{-1,-5,11,-9,5,-1,-14,0,0,-11}|{4,-11,19,1,10,-7,-14,5,4,-18}|{20,0,-15,20,-14,-15,-15,12,11,12}|{-4,-8,-6,6,-17,3,-13,-6,-9,10}|{-4,18,12,18,12,-8,-14,18,11,-20}|{-8,-15,-9,12,-2,20,-10,11,-16,0}|{-7,-6,10,8,14,-9,16,-7,-2,-14}|{-14,12,-6,15,7,-18,8,-12,-13,15}|{19,-12,-19,10,-1,-10,-19,2,-13,-16}|{-8,-4,-10,12,-4,-19,-12,-17,-16,0}}
{{2,-6,1,8,14,1,-11,0,-16,0}|{-1,13,2,-5,-12,-11,20,5,18,18}|{1,16,-11,2,-9,4,7,-6,12,5}|{11,-19,8,20,-1,20,13,14,-18,20}|{5,4,3,-19,-9,-1,-6,4,19,-11}|{9,-2,7,4,13,7,-16,20,-3,-11}|{14,16,8,-1,9,-3,-16,2,17,-12}|{-3,-14,2,18,-7,18,-8,-13,-9,12}|{-11,-17,-4,3,17,-7,-5,-17,-14,13}|{15,14,-3,13,-15,10,16,-16,-7,14}}
{{18,19,-10,-17,3,-14,0,4,-5,16}|{9,-9,-16,-8,20,9,17,-11,14,6}|{16,0,6,-11,10,15,3,4,14,-19}|{-8,10,20,-18,3,-5,9,17,5,-1}|{-12,-15,-16,-10,9,2,4,-13,10,3}|{1,-6,-10,14,-15,-2,-8,-20,-7,8}|{4,17,10,-7,3,20,-9,-18,9,5}|{-20,-20,5,-5,-2,10,-5,-4,0,-12}|{-9,-5,14,-9,1,18,-1,-14,17,-16}|{-18,8,4,17,15,-9,-5,11,7,10}}
{{267,55,377,248,-475,602,-639,-696,264,506,593,685,1,-609,-1491,-766,962,243,-88,-237}|{-454,-216,-939,-850,-1247,-500,-5,331,-159,-416,-769,568,641,278,-512,-799,299,173,-108,-97}|{-724,-65,-132,245,-744,255,-804,154,456,-6,-76,233,-397,-211,-440,-1354,802,1118,26,129}|{613,91,313,1186,-86,1225,-314,-3,-396,592,208,-228,-195,522,-26,99,-545,421,728,-792}|{238,299,661,-21,-161,222,-317,133,-18,-103,1103,-121,659,395,-316,818,-645,-109,175,257}|{1013,737,-898,693,1461,-1399,526,-755,170,-804,597,-353,172,-397,412,203,1014,138,-1294,109}|{-32,102,780,-199,-114,-332,-301,-365,-367,48,878,773,-540,-632,-102,16,124,-552,-682,260}|{237,-1143,61,-79,-302,730,-180,64,377,116,90,613,-628,171,-495,822,-242,1243,-832,-491}|{121,1438,649,180,-37,124,-757,510,70,51,811,-695,447,-412,325,94,-591,-326,468,-210}|{684,-531,79,33,461,812,365,396,690,250,-335,-1125,342,-193,485,1251,157,-25,444,-571}|{25,-164,750,209,-392,274,94,-446,-68,500,-30,-78,-258,-1593,-88,162,318,-448,-606,-591}|{929,-371,77,607,-393,448,41,-269,-414,348,461,-942,1331,-35,-834,-317,6,-1162,752,-499}|{667,1034,100,766,-245,482,-769,-196,718,127,-19,-903,130,758,146,-1343,45,128,1305,-113}|{-34,284,730,-835,394,-660,545,-799,237,101,908,713,800,-683,-637,940,-922,-1207,265,900}|{444,-686,300,551,-641,772,9,-704,322,782,-378,606,-1021,972,-1177,-1086,-460,672,723,-550}|{-1158,-345,122,-1006,-652,-624,322,406,-186,27,-864,536,-585,-376,-565,-210,440,209,-1101,-425}|{248,-25,-112,597,761,539,-402,-415,379,-210,310,259,262,-1041,656,968,-456,-74,-455,269}|{259,176,-168,-284,326,-362,-41,529,752,425,-59,349,-886,480,142,326,-628,872,-521,659}|{-395,432,-155,-653,748,101,289,-467,411,76,-28,1059,366,-850,-231,315,-582,-860,516,1142}|{462,-722,1307,674,-1672,1006,402,-445,292,1239,-34,-880,215,810,78,-610,-568,-189,1294,469}}
{{34914,1025,22155,46104,-12904,-58808,49656,47923,-44168,49794,9521,10563,-67672,10538,29799,-15440,-20735,11228,6053,-13696}|{45263,-42866,43191,-38295,-1358,22343,-18226,22556,2643,-6353,4213,-15934,8247,-10666,7462,7700,27095,22961,41220,27664}|{32122,-28682,41355,-15802,-45894,-47615,23766,46651,-9599,34851,-49298,47460,-8999,11991,-1494,33237,-19036,-8889,-18715,4080}|{4708,28206,1037,9487,-37466,-12201,-1108,47663,8203,27782,-8240,-659,-9929,-3525,13298,-30559,15593,25967,15910,-41312}|{-32478,-459,-38821,-17054,-18306,-4094,7839,-11579,2537,23342,25822,-29556,-4696,-24931,1374,-2871,13064,-13785,45861,-9258}|{653,-39885,-20079,55266,64779,-90,-34385,-56043,-60617,52626,-33819,18699,19696,33713,1572,-27083,-35119,-82509,-108171,11913}|{-7897,16059,-24880,26120,-2659,-17535,38905,326,-8010,5360,21548,5926,-1980,28488,13568,77,-5234,-5988,-14105,-9296}|{32286,5738,27860,10726,-48606,-22631,7335,-12066,11973,32493,-22488,-10976,2322,-14071,-2713,-44578,9493,-14359,-14561,8483}|{-29391,7336,-27339,-11923,-20404,-12341,28347,-7291,-22733,6493,13176,16134,33682,-19518,-31446,30152,16136,3684,39793,-41740}|{-22859,15850,12208,26734,2938,21036,-26932,-59569,-12148,-14943,9521,-9033,-17560,-12020,-22363,-25966,-13963,-24873,721,15300}|{18981,56586,8645,64210,13413,16572,51687,-13309,-31922,-216,44928,4757,-12614,38035,-21799,-28442,-12691,17622,-10969,-9290}|{-37634,18656,754,19410,29108,52126,-22089,22254,-1343,13882,52385,-30756,-73533,7618,31733,-41174,3559,2166,55000,-17173}|{-21763,3198,24197,-15797,-24465,-57002,6679,61400,-21369,-1577,-40202,58304,-25493,-9735,-116,32470,-5366,-9066,16636,-12794}|{-47146,24655,-30919,20009,65674,18926,37364,-29826,-26295,-45839,94144,-37642,-25588,-8707,-13151,10925,-21016,31164,60756,686}|{38689,35271,51269,13593,-35783,-55175,13944,105028,14493,-2676,-15509,18683,-54719,3439,28180,-28184,2546,39180,19485,-24928}|{77229,-3244,1872,-2199,-11263,-177,19218,-3373,13578,856,9295,-24689,28882,-2929,-8067,273,27258,21961,262,6830}|{-44214,27411,4024,17740,24792,20915,46746,-54471,-17767,-2307,775,8939,17081,-2853,-18792,-13144,-12893,-4753,-22337,12905}|{5838,-4546,8532,-14308,-8438,-31670,7196,-8692,10535,-17919,-49471,36158,20692,-19340,-30047,20320,-8961,-20742,-31257,-18226}|{-39317,17175,-1961,-289,58950,10025,52492,-22823,-14499,-68052,42856,-9737,-19148,-20803,-11855,29779,-24775,60862,38453,3927}|{-34518,77349,11974,9037,-13487,10693,4976,71654,18164,-40922,31485,17658,-97156,38836,-21384,5521,-37504,11816,53713,6418}}
{{-1494661,1798275,3447928,551338,1681956,1886342,120922,27959,1003595,1330559,-52620,1054482,-3101995,-2496247,2198496,2129422,-1778673,2690669,-427851,-3748355}|{-1116919,-1933372,408144,-210831,301262,646752,539399,20393,461633,-849785,392330,-1968645,-471787,1003853,1799052,-607982,-475036,-810423,988399,9533}|{-1563122,3190668,2167750,2414633,-699176,573822,-2599111,108082,1074393,1348386,1271925,271808,-1515736,998181,1867459,2063994,1179372,11132,846628,-1702025}|{-2403828,621841,1968411,344821,969518,312800,-850677,-749416,878408,64671,1904799,-2284850,-1097572,549388,1401445,-863405,-494193,618618,1236468,-2920739}|{-553782,-659155,897031,401511,665713,-510363,168896,-1132503,-2615305,-1227248,87516,-1058348,-386643,1165060,-388109,-1975309,-44115,173490,19248,-1084}|{3561747,603289,-3001911,-1435488,-188050,-1302860,1365770,1777457,4426969,2636512,-678018,3038167,1388089,-1715038,-1123127,3316137,1776027,967849,-1265104,4311625}|{1025625,614780,-79550,488336,729655,1455946,493856,-427754,91074,-584023,175336,2075268,-1437304,-987134,-366878,764804,-291132,438713,-1462145,-493707}|{-225288,1169328,563641,-191535,838754,-1417088,-641743,-762266,1279029,2414988,-769885,-2489894,-1217432,654341,2097104,-505800,-1043944,661502,-148697,-2446253}|{119137,189272,1304589,965584,-95992,995225,-458293,-133277,-2118838,-1606160,2332863,-730463,-1150055,1014965,-795732,-1322895,1819400,-14133,-685188,-511329}|{1634829,116131,-1469984,-2145557,-438390,-3221657,-209955,517387,-1021890,1621467,-2407752,-222711,869901,-859659,-784097,348027,-796764,2151522,230810,101528}|{2040825,509810,-618213,-1464578,1052722,1834375,1602252,-680467,1016005,-521885,-1542758,875082,-2505421,-2344869,-31790,1402353,-2076301,1724604,-2027406,-2821599}|{-1382056,-552036,238460,-2109904,570332,-1026882,503773,-396498,-264440,-1650719,-1865644,-850944,613256,-1504623,503289,-1007458,-2557995,2261953,3106542,-865480}|{-2443027,2762203,2773244,1700563,-308509,-102130,-2966289,799153,-1283263,406180,2085184,537522,-409291,673948,264323,1055637,2839449,1097661,2102375,-1723904}|{1892938,-2156592,188568,-1341067,642405,1616140,2730304,650840,-3780152,-3190735,-2285104,2620828,-288690,-2804738,-2777415,-1080796,-2184202,1132719,-1859172,388715}|{-3698567,2036903,3933687,728658,1815617,1500075,-1670294,149066,720413,1071288,1413389,-1517059,-1662643,-832066,2476922,726563,-913749,1831804,2426604,-5565553}|{481890,-1967104,-116258,70825,1365165,2595072,2010480,-1105695,601084,219201,472219,-1958181,-1507908,428316,1321768,-229687,-850472,-1216651,-2129450,-1028157}|{2182526,1202869,-1725124,-524067,-1336349,-1006231,625577,-146580,981922,-456200,-2790329,1296807,-103734,-1070620,-757543,-1447233,-841078,-847369,-1821005,562227}|{338943,2131684,578159,1046655,-1178088,-386358,-1351663,982038,-67424,2007565,719316,-325773,1369750,174123,-142397,307538,2289777,-641263,378465,-39359}|{925745,-955586,586763,-227608,-1210875,1382773,1839101,1004985,-2416955,-2043154,-2239336,2917417,467211,-3029771,-1851840,-1315324,-1850367,-677224,-1868192,288549}|{-2340061,2570061,1577098,-27221,84749,-264087,-2407173,-1675310,-4343270,-1948398,-1693161,799141,-141218,16670,-1204146,2027460,-682575,2706376,3619697,-4238679}}
{{163190616,78775960,152680682,-205583332,-22382408,-68387244,-170278780,198603277,-10606432,-46886083,143176430,124271325,-53245700,-5452144,1443219,-151434589,324322445,-8237048,-44908015,-38054289}|{43427318,1055755,17724017,-64020281,-51654372,-59689977,-37540652,51984945,-32565189,-32907738,-15555896,-12706692,-22774175,-69923419,-51858157,-44050543,15164981,-1691961,-33914364,-293371}|{134517343,60555461,-21932613,-136339423,-62738036,92644491,-39211731,120493514,-83312995,-41320074,150583237,2312977,58583496,-19020085,21405312,-15250579,204086171,-74597929,-71027703,-165611430}|{171924109,120332751,75742617,-171325974,12864910,-96988097,-124249003,113038613,-33085729,-100443626,97256824,27122716,-24711304,-94478725,-78513281,-51397587,195958564,5510165,-77449868,-105906492}|{39644792,30944264,-16912353,-59211983,37196318,-23197473,46198711,16879459,-36041948,44434475,-23018201,-31622672,3030578,-70772650,-64105561,2365661,-6977586,5996474,-7887350,68572035}|{-186458677,-143991381,9092183,305500859,-14231360,52302937,15156329,-98559392,138216746,-8287383,-37232346,70101069,27259172,272583671,155177312,15891934,-58472833,-26058011,12824008,13918494}|{-33001620,17997693,52592425,17318873,-7810133,-13370409,8387891,-913844,3618035,14137264,27910715,14092470,25038998,10527474,-10866129,-14113468,47164878,-40995771,42616945,91004954}|{104045749,79128948,4173827,-61644381,47107639,-69896534,-122322342,110050515,-1127656,-124674769,30758187,48318727,-22765334,78652665,-113351032,-58591969,188785424,36830099,-100488995,-104099763}|{63831538,126063151,-38508474,-93670876,-53735246,-21410640,37066384,-1487544,-58071150,42599893,20721313,-41884966,74247310,-135110005,-55216679,35755188,28273473,-122335663,4648359,12324001}|{-17151249,-43011079,-76734092,96953098,33769529,33880933,-76034434,-41974527,56767319,-42178134,-88918951,69523849,-46245772,112461890,28503530,-13053868,-72656755,104728880,-35030224,10185222}|{8794144,33358869,81968882,-14055775,-4298817,-132653148,-146192301,-5367959,31407704,-94262043,-20572522,62245711,-33392974,59873325,-53453624,-101668764,67742188,8222837,47257349,129431864}|{34988083,-61788304,105199811,-94410415,31778659,-32041218,-155868734,-11414901,70956278,-39213394,-43137562,67410283,-142926688,-39895771,23006503,-97534127,-55492459,213467409,-42376087,65292616}|{198842297,97892734,-46652803,-218025564,-60158987,91105593,-12067776,68521363,-76021528,50995726,165570405,-10516734,21819140,-139844768,78538628,-5829889,151634104,-77659066,-55169607,-155528513}|{-142389406,-54615909,49035155,15287214,7521114,-38186554,41942645,-107462228,67826872,162197922,-148963668,9758090,-49565914,-66275416,33053475,-11559123,-190292844,35667426,132383686,258865125}|{295612826,148680028,110230427,-358072175,-17179045,-95546994,-207838978,201116147,-31967193,-78139528,202624713,78971400,-85604147,-158089370,-31721323,-141536724,323594327,2444131,-102747860,-185632393}|{36566049,50293350,32430236,-26254978,-5224562,-168740498,6632378,79012703,-43928200,-52844180,2858249,-9563212,11993551,-7549589,-132679193,-62399972,68949546,-92682668,27861044,60170006}|{-199877075,-29112941,8096017,134098809,64331088,46219876,28104927,-143370219,66289543,22284871,-122233415,-39497211,2391666,160125336,-11357305,65397288,-100378245,93894698,67789855,61117700}|{20805052,43328951,-89530467,-42824740,-15107080,89872426,52585931,-11102308,3117666,49974693,62211906,-13005696,36573961,10034429,48134915,44913157,7036720,-69822556,-13840503,-174901193}|{-196997985,-49430404,46303021,28635582,20583127,56903148,91319757,-112523323,50003618,176526594,-116734006,-20270872,-36468720,-15884258,68878446,53624017,-169169119,55573986,153629629,118005039}|{251730626,-35024973,-67313082,-265501501,18927709,60233702,-92426150,3992327,-95703443,-7934466,97982869,-11107448,-92615207,-173153166,81801601,-101132399,-25724512,98273257,6929362,42201294}}
{{40291006,43145954,9258693,-27456463,37575322,40027956,9280178,-30890184,38015076,15548781}|{-48347181,-17253437,21977385,54032018,-19060170,-673706,-21933002,7744002,-8503417,-18716463}|{31144644,11363229,-18961532,-35106920,49088178,14835553,34087927,-6881776,36981619,9586644}|{-17833524,7759348,17751712,19288925,-26726923,-19436493,-23191743,16322003,-22600001,1487304}|{3252392,16104344,6320356,2744392,22328315,13791942,4625219,-3217494,18244013,5591827}|{-10181887,30451193,18207096,21232108,-26847457,-33348104,-26715169,27293138,-32076478,21149123}|{-26843365,-49445156,-4244903,26880000,-51053329,-8211289,-18707351,-2616886,-36649397,-29543537}|{34634688,-20681752,-27369772,-52674917,41316479,34964848,40919968,-34595563,45327716,-12730753}|{34609771,40022752,-1894915,-22739379,32869494,10378436,13362228,-7729583,23938060,23801504}|{26621799,8000787,-5978786,-19379897,52775900,51396459,28905043,-42230759,58916959,-4231950}}
finish
